…
Here is where I “remove” it by selecting which variables I want in the
final dataset after merging bakers (now called `bakers_names`) into
`results_bakes`.

``` r
results_bakes_names=
  results_bakes |> 
  left_join(bakers_names, by = c("baker", "series")) |> 
  select(baker, last_name, baker_age, baker_occupation, hometown, series, episode, result, technical, signature_bake, show_stopper)

results_bakes_names
```

    ## # A tibble: 696 × 11
    ##    baker     last_name baker_age baker_occupation hometown series episode result
    ##    <chr>     <chr>         <dbl> <chr>            <chr>     <dbl>   <dbl> <chr> 
    ##  1 Annetha   Mills            30 Midwife          Essex         1       1 IN    
    ##  2 David     Chambers         31 Entrepreneur     Milton …      1       1 IN    
    ##  3 Edd       Kimber           24 Debt collector … Bradford      1       1 IN    
    ##  4 Jonathan  Shepherd         25 Research Analyst St Alba…      1       1 IN    
    ##  5 Miranda   Browne           37 Food buyer for … Midhurs…      1       1 IN    
    ##  6 Lea       Harris           51 Retired          Midloth…      1       1 OUT   
    ##  7 David     Chambers         31 Entrepreneur     Milton …      1       2 IN    
    ##  8 Edd       Kimber           24 Debt collector … Bradford      1       2 IN    
    ##  9 Jasminder Randhawa         45 Assistant Credi… Birming…      1       2 IN    
    ## 10 Jonathan  Shepherd         25 Research Analyst St Alba…      1       2 IN    
    ## # ℹ 686 more rows
    ## # ℹ 3 more variables: technical <dbl>, signature_bake <chr>, show_stopper <chr>
…
